Trigger MB

2021-01-27 16:48:36,648|Thread-18|DEBUG|proc-0|SEND_OFFER_UMB=> 6282124913385|1|{"1":"0|00032012|300mb, 30min tsel, 20sms tsel/2hari|","2":"0|00032013|400mb, 35min tsel, 20sms tsel/3hari|","3":"0|00031980|500mb, 60min tsel, 100sms tsel/3hari|","4":"0|00032010|350mb, 75min tsel, 30sms tsel/1hari|","5":"0|00032033|900mb, 50min tsel, 100sms tsel/3hari|","6":"0|00032011|350mb, 75min tsel, 30sms tsel/1hari|","7":"0|00031982|350mb, 75min tsel, 30sms tsel/1hari|","8":"0|00032016|100mb, 10min tsel, 10sms tsel/1hari|","9":"0|00031981|1gb, 75min tsel, 30sms tsel/2hari|","10":"0|00031984|350mb, 30min tsel, 20sms tsel/1hari|","11":"0|00032014|50mb, 10min tsel, 20sms tsel/1hari|","12":"0|00031983|500mb, 75min tsel, 30sms tsel/1hari|","13":"0|00031986|350mb, 30min tsel, 20sms tsel/1hari|","14":"0|00031985|350mb, 30min tsel, 20sms tsel/1hari|","15":"0|00031988|300mb, 50min tsel, 25sms tsel/1hari|","16":"0|00032018|1.5gb, 30min tsel, 150sms tsel/7hari|","17":"0|00031987|100mb,40min tsel,15min allops,30sms tsel/2hari|","18":"0|00031989|500mb, 75min tsel, 30sms tsel/1hari|","19":"0|00032030|1gb, 75min tsel, 30sms tsel/2hari|","20":"0|00032023|400mb, 50min tsel, 50sms tsel/2hari|","21":"0|00032001|1gb, 30min tsel, 150sms tsel/7hari|","22":"0|00032021|500mb, 50min tsel, 25sms tsel/1hari|","23":"0|00031991|1gb, 75min tsel, 30sms tsel/2hari|","24":"0|00032000|600mb, 50min tsel, 100sms tsel/3hari|","25":"0|00031990|750mb, 75min tsel, 30sms tsel/2hari|","26":"0|00032005|750mb, 75min tsel, 30sms tsel/2hari|","27":"0|00031993|500mb/2hari|","28":"0|00032025|100mb,10min tsel,10min allops,25sms tsel/1hari|","29":"0|00032003|750mb, 50min tsel, 100sms tsel/3hari|","30":"0|00031995|850mb/1hari|","31":"0|00032026|750mb, 75min tsel, 30sms tsel/2hari|","32":"0|00031994|500mb, 75min tsel, 30sms tsel/1hari|","33":"0|00032009|350mb, 30min tsel, 20sms tsel/1hari|","34":"0|00031996|500mb, 75min tsel, 30sms tsel/1hari|","35":"0|00032029|750mb, 75min tsel, 30sms tsel/2hari|","36":"0|00031999|200mb, 15min tsel, 20sms tsel/3hari|","37":"0|00031976|50mb, 10min tsel, 20sms tsel/1hari|","38":"0|00032008|300mb, 30min tsel, 20sms tsel/1hari|","39":"0|00031998|250mb, 15min tsel, 15sms tsel/1hari|","40":"0|00031979|1gb, 75min tsel, 30sms tsel/2hari|","41":"0|00031978|50mb, 10min tsel, 20sms tsel/1hari|"}|
1

41.50mb, 10min tsel, 20sms tsel/1hari,Harga:1000|http://10.2.114.35:30007/cgi-bin/sendsms?user=tselsmsgwdev&pass=ts3lsms9wd3v&from=8008&to=6282124913385&text=Pelanggan+Yth%2C+Anda+berhak+mendapatkan+Loan+service+berikut+%3A%0A1.300mb%2C+30min+tsel%2C+20sms+tsel%2F2hari%2CHarga%3A7000%0A2.400mb%2C+35min+tsel%2C+20sms+tsel%2F3hari%2CHarga%3A10000%0A3.500mb%2C+60min+tsel%2C+100sms+tsel%2F3hari%2CHarga%3A13000%0A4.350mb%2C+75min+tsel%2C+30sms+tsel%2F1hari%2CHarga%3A3000%0A5.900mb%2C+50min+tsel%2C+100sms+tsel%2F3hari%2CHarga%3A20000%0A6.350mb%2C+75min+tsel%2C+30sms+tsel%2F1hari%2CHarga%3A3000%0A7.350mb%2C+75min+tsel%2C+30sms+tsel%2F1hari%2CHarga%3A3000%0A8.100mb%2C+10min+tsel%2C+10sms+tsel%2F1hari%2CHarga%3A1000%0A9.1gb%2C+75min+tsel%2C+30sms+tsel%2F2hari%2CHarga%3A10000%0A10.350mb%2C+30min+tsel%2C+20sms+tsel%2F1hari%2CHarga%3A2000%0A11.50mb%2C+10min+tsel%2C+20sms+tsel%2F1hari%2CHarga%3A1000%0A12.500mb%2C+75min+tsel%2C+30sms+tsel%2F1hari%2CHarga%3A5000%0A13.350mb%2C+30min+tsel%2C+20sms+tsel%2F1hari%2CHarga%3A2000%0A14.350mb%2C+30min+tsel%2C+20sms+tsel%2F1hari%2CHarga%3A2000%0A15.300mb%2C+50min+tsel%2C+25sms+tsel%2F1hari%2CHarga%3A5000%0A16.1.5gb%2C+30min+tsel%2C+150sms+tsel%2F7hari%2CHarga%3A50000%0A17.100mb%2C40min+tsel%2C15min+allops%2C30sms+tsel%2F2hari%2CHarga%3A5000%0A18.500mb%2C+75min+tsel%2C+30sms+tsel%2F1hari%2CHarga%3A5000%0A19.1gb%2C+75min+tsel%2C+30sms+tsel%2F2hari%2CHarga%3A10000%0A20.400mb%2C+50min+tsel%2C+50sms+tsel%2F2hari%2CHarga%3A10000%0A21.1gb%2C+30min+tsel%2C+150sms+tsel%2F7hari%2CHarga%3A35000%0A22.500mb%2C+50min+tsel%2C+25sms+tsel%2F1hari%2CHarga%3A5000%0A23.1gb%2C+75min+tsel%2C+30sms+tsel%2F2hari%2CHarga%3A10000%0A24.600mb%2C+50min+tsel%2C+100sms+tsel%2F3hari%2CHarga%3A15000%0A25.750mb%2C+75min+tsel%2C+30sms+tsel%2F2hari%2CHarga%3A7000%0A26.750mb%2C+75min+tsel%2C+30sms+tsel%2F2hari%2CHarga%3A7000%0A27.500mb%2F2hari%2CHarga%3A5000%0A28.100mb%2C10min+tsel%2C10min+allops%2C25sms+tsel%2F1hari%2CHarga%3A10000%0A29.750mb%2C+50min+tsel%2C+100sms+tsel%2F3hari%2CHarga%3A18000%0A30.850mb%2F1hari%2CHarga%3A10000%0A31.750mb%2C+75min+tsel%2C+30sms+tsel%2F2hari%2CHarga%3A7000%0A32.500mb%2C+75min+tsel%2C+30sms+tsel%2F1hari%2CHarga%3A5000%0A33.350mb%2C+30min+tsel%2C+20sms+tsel%2F1hari%2CHarga%3A2000%0A34.500mb%2C+75min+tsel%2C+30sms+tsel%2F1hari%2CHarga%3A5000%0A35.750mb%2C+75min+tsel%2C+30sms+tsel%2F2hari%2CHarga%3A7000%0A36.200mb%2C+15min+tsel%2C+20sms+tsel%2F3hari%2CHarga%3A5000%0A37.50mb%2C+10min+tsel%2C+20sms+tsel%2F1hari%2CHarga%3A1000%0A38.300mb%2C+30min+tsel%2C+20sms+tsel%2F1hari%2CHarga%3A3000%0A39.250mb%2C+15min+tsel%2C+15sms+tsel%2F1hari%2CHarga%3A2000%0A40.1gb%2C+75min+tsel%2C+30sms+tsel%2F2hari%2CHarga%3A10000%0A41.50mb%2C+10min+tsel%2C+20sms+tsel%2F1hari%2CHarga%3A1000%2C+Akses+Melalui+USSD+*631*100%23|Sent.
|1|STATE-5
2021-01-27 16:48:36,648|Thread-18|DEBUG|CREDENTIALS_PUSH_INBOX=>s4exdg54wctxst7f5wg2vvtz|RmAAgKErTu|1611740916|s4exdg54wctxst7f5wg2vvtzRmAAgKErTu1611740916
2021-01-27 16:48:38,739|Thread-18|DEBUG|proc-0|SEND_OFFER_MyTsel_PUSH=> https://api.digitalcore.telkomsel.co.id/preprod-web/scrt/esb/v1/notification/push|{"transaction":{"transaction_id":"LI02221611740916648","channel":"i1"},"service":{"service_id" : "6282124913385"},"inbox":{"title":"Loan Service Telkomsel","content":"Loan Service Telkomsel","language":"id","source":"UXP","service":"DigitalNotification","timestamp":"2021-01-27 16:48:36","deeplink":"OFFER","deeplink_category":"LOAN_OFFER","status":"Success","operation":"PurchaseOffer","type":"NOTIF","entity_id":"ML2_LN_22","entity_name":"SMS Mania","max_delivery":10,"delivery_count":0,"viral_bonus":{"viral_class":"sms","viral_description": "SMS Tsel","viral_quota": "300","viral_unit": "SMS"}}}|{"transaction":{"transaction_id":"LI02221611740916648","channel":"i1","status_code":"30001","status_desc":"Record not found"}}|400
2021-01-27 16:48:38,842|Thread-18|DEBUG|proc-0|SEND_OFFER_MyTsel_INBOX=> https://api.digitalcore.telkomsel.co.id/preprod-web/scrt/esb/v1/customer/inbox|{"transaction":{"transaction_id":"LI02221611740916648","channel":"i1"},"service":{"service_id" : "6282124913385"},"inbox":{"type":"NOTIF","category":"Purchase - Self","subcategory":"ML2_LN_22","title":"Loan Service Telkomsel","content":"Loan Service Telkomsel","language":"id","source":"ContactProtocol","service":"DigitalNotification","timestamp":"2021-01-27 16:48:36","deeplink":"OFFER","deeplink_category":"LOAN_OFFER","read_flag":"false","deleted_flag":"false","campaign_id": "D181019ABRAB702","campaign_tracking_id":"939938fa-e789-4e35-8c91-6acdfc530528"}}|{"transaction":{"transaction_id":"LI02221611740916648","channel":"i1","status_code":"00000","status_desc":"Success"}}|200
2021-01-27 16:48:38,842|Thread-18|DEBUG|proc-0|UPDATE_HISTORY=>
